{
  "John": {
    "1":  [1,2,3,4,5,6,7,9,10,11,12,13,14,15,16,17,18,23,26,27,29,30,33,34,45,49,51],
    "2":  [16,17,19,22,23,25],
    "3":  [3,5,6,7,8,14,15,16,17,19,20,21,30,35,36],
    "4":  [13,14,23,24,34,35,37,42],
    "5":  [8,17,21,22,23,24,39,40],
    "6":  [14,27,28,29,31,33,35,63,69],
    "7":  [18,24,37,38],
    "8":  [7,11,12,31,32,34,35,36,51,58],
    "9":  [3,4,5,25,39],
    "10":  [9,10,11,14,15,16,17,27,28,29,30],
    "11":  [4,25,26,27,35,40,50,51,52],
    "12":  [8,13,14,15,24,25,26,28,32,40,41,46,47,48],
    "13":  [13,14,15,16,17,18,20,34,35],
    "14":  [1,2,3,4,6,7,12,13,14,15,16,17,19,21,23,26,27],
    "15":  [1,2,4,5,7,8,10,11,12,13,14,15,16,17,18,19,26,27],
    "16":  [7,8,12,13,24,27,33],
    "17":  [1,2,3,4,5,8,11,15,17,20,21,24],
    "18":  [11,36,37],
    "19":  [17,18,19,24,28,30,36,37],
    "20":  [1,17,21,22,27,29,30,31],
    "21":  [14,15,25]
  }
}
